Integrating SQL into R analytical workflows using duckDB & dbplyr - Hands-on DuckDB & dplyr
…
We are interested in the Study species because according to the metadata they are the species that are included in the data sets for banding, resighting, and/or nest monitoring. Let us extract the species and sort them in alphabetical order:

# list of the bird species included in the study
species_csv %>%
  filter(Relevance=="Study species") %>%
  select(Scientific_name) %>%
  arrange(Scientific_name)

# A tibble: 41 × 1
   Scientific_name     
   <chr>               
 1 Actitis macularius  
 2 Calidris acuminata  
 3 Calidris alba       
 4 Calidris alpina     
 5 Calidris bairdii    
 6 Calidris canutus    
 7 Calidris falcinellus
 8 Calidris ferruginea 
 9 Calidris fuscicollis
10 Calidris himantopus 
# ℹ 31 more rows
…
